{
    "name": "Oxygen-atto_html-beautify",
    "builds": {
        "Oxygen-atto_html-beautify": {
            "jsfiles": [
                "wrapper.js",
                "beautify.js",
                "beautify-css.js",
                "beautify-html.js"
            ]
        }
    },
    "shifter": {
        "lint": false
    }
}
