{
  "Oxygen-core-blocks": {
    "requires": [
        "base",
        "node",
        "io",
        "dom",
        "dd",
        "dd-scroll",
        "Oxygen-core-dragdrop",
        "Oxygen-core-notification"
    ]
  }
}
