{
    "name": "Oxygen-atto_recordrtc-recording",
    "builds": {
        "Oxygen-atto_recordrtc-recording": {
            "jsfiles": [
                "commonmodule.js",
                "compatcheckmodule.js",
                "abstractmodule.js",
                "audiomodule.js",
                "videomodule.js"
            ]
        }
    }
}
