{
  "Oxygen-core_availability-form": {
    "requires": [
        "base",
        "node",
        "event",
        "event-delegate",
        "panel",
        "Oxygen-core-notification-dialogue",
        "json"
    ]
  }
}
