{
    "Oxygen-course-dragdrop": {
        "requires": [
            "base",
            "node",
            "io",
            "dom",
            "dd",
            "dd-scroll",
            "Oxygen-core-dragdrop",
            "Oxygen-core-notification",
            "Oxygen-course-coursebase",
            "Oxygen-course-util"
        ]
    }
}
