{
    "Oxygen-core-dragdrop": {
        "requires": [
            "base",
            "node",
            "io",
            "dom",
            "dd",
            "event-key",
            "event-focus",
            "Oxygen-core-notification"
        ]
    }
}
