{
    "name": "Oxygen-filter_mathjaxloader-loader",
    "builds": {
        "Oxygen-filter_mathjaxloader-loader": {
            "jsfiles": [
                "loader.js"
            ]
        }
    }
}
