{
    "name": "Oxygen-tool_lp-dragdrop-reorder",
    "builds": {
        "Oxygen-tool_lp-dragdrop-reorder": {
            "jsfiles": [
                "dragdropreorder.js"
            ]
        }
    }
}
