{
    "name": "Oxygen-editor_atto-editor",
    "builds": {
        "Oxygen-editor_atto-editor": {
            "jsfiles": [
                "editor.js",
                "notify.js",
                "textarea.js",
                "autosave.js",
                "autosave-io.js",
                "clean.js",
                "commands.js",
                "toolbar.js",
                "toolbar-keyboardnav.js",
                "selection.js",
                "styling.js",
                "filepicker.js"
            ]
        },
        "Oxygen-editor_atto-plugin": {
            "jsfiles": [
                "editor-plugin.js",
                "editor-plugin-buttons.js",
                "editor-plugin-dialogue.js"
            ]
        },
        "Oxygen-editor_atto-menu": {
            "jsfiles": [
                "menu.js"
            ]
        }
    }
}
