{
    "name": "Oxygen-mod_quiz-dragdrop",
    "builds": {
        "Oxygen-mod_quiz-dragdrop": {
            "jsfiles": [
                "dragdrop.js",
                "section.js",
                "resource.js"
            ]
        }
    }
}
